<?xml version="1.0" encoding="UTF-8"?>
<!DOCTYPE svg PUBLIC "-//W3C//DTD SVG 1.1//EN" "http://www.w3.org/Graphics/SVG/1.1/DTD/svg11.dtd">
<!-- Creator: CorelDRAW 2018 (64 Bit) -->
<svg xmlns="http://www.w3.org/2000/svg" xml:space="preserve" width="41.962mm" height="25.3618mm" version="1.1" style="shape-rendering:geometricPrecision; text-rendering:geometricPrecision; image-rendering:optimizeQuality; fill-rule:evenodd; clip-rule:evenodd"
viewBox="0 0 20.01 12.09"
 xmlns:xlink="http://www.w3.org/1999/xlink">
 <defs>
  <font id="FontID0" horiz-adv-x="619" font-variant="normal" style="fill-rule:nonzero" font-weight="400">
	<font-face 
		font-family="Stencil">
		<font-face-src>
			<font-face-name name="Stencil"/>
		</font-face-src>
	</font-face>
   <missing-glyph><path d="M0 0z"/></missing-glyph>
   <glyph unicode="C" horiz-adv-x="584" d="M308.994 680.162l0 -59.1669c-19.5,-2.99461 -33.9935,-11.4988 -43.6558,-25.4893 -9.51022,-14.1776 -14.3414,-34.1689 -14.3414,-60.3367l0 -403.336 0 -20.9973c0,-7.49822 1.4973,-15.3357 4.66738,-23.6644 3.17007,-8.34045 7.17068,-15.3357 12.1656,-21.3366 5.33414,-6.50391 11.0075,-10.9958 16.833,-13.8384 6.00091,-2.83084 14.1659,-4.66738 24.3312,-5.66168l0 -59.5061c-63.1558,0 -118.158,16.5054 -164.832,49.3408 -41.0004,28.9986 -71.9993,67.8349 -92.8328,116.836 -20.8336,48.9899 -31.3264,106.999 -31.3264,173.991 0,49.1654 6.83145,95.0086 20.3306,137.506 13.4991,42.4977 33.1629,79.3337 58.8277,110.496 26.1677,31.6656 57.3421,57.0028 93.6751,76.1636 36.333,19.1725 71.3325,28.8348 104.998,28.8348l11.1596 0.163768zm38.0058 -59.6582l0 59.1669c16.0024,-2.5033 28.8348,-5.33414 38.8363,-8.34045 9.82606,-2.83084 27.8288,-8.99552 53.8327,-18.494 16.6692,-5.83714 27.665,-8.83175 33.1629,-8.83175 9.49852,0 16.6692,4.16438 21.5003,12.6569l6.32845 11.6743c4.00061,7.82575 11.3351,11.6626 22.0033,11.6626 8.83175,0 15.4994,-2.66707 20.3306,-7.82575 4.66738,-5.17038 7.00691,-12.8441 7.00691,-22.8339l0 -203.668c0,-12.8324 -3.00631,-22.1671 -8.83175,-28.0043 -5.83714,-5.83714 -12.5048,-8.66798 -20.003,-8.66798 -7.83745,0 -14.0021,2.5033 -18.6695,7.49822 -4.83114,5.17038 -8.66798,13.3354 -11.4988,24.6704 -6.83145,25.8285 -13.4991,45.9953 -20.003,60.6642 -13.9904,30.8351 -29.9929,55.9968 -47.8318,75.1693 -12.0018,12.9961 -24.1674,22.9976 -36.1692,30.0046 -11.9901,6.99522 -25.3255,11.4988 -39.9944,13.4991zm2.0003 -633.675l0 59.5061c25.501,2.0003 52.1717,11.6626 80.1642,28.8348 14.9964,9.49852 28.5073,22.1671 40.1699,37.9941 11.6626,15.6749 20.4943,33.1746 26.4953,52.0079 3.17007,10.4928 7.00691,17.8273 11.3351,22.1671 4.50361,4.49191 10.3408,6.65598 17.4997,6.65598 7.83745,0 14.3297,-2.99461 19.5,-8.83175 5.17038,-5.82545 7.83745,-13.1599 7.83745,-21.9916 0,-14.6689 -5.67338,-32.3324 -16.833,-53.166 -11.3351,-20.8336 -25.6647,-40.1699 -43.3399,-57.6696 -21.5003,-21.5003 -43.6675,-37.5028 -66.3259,-48.0073 -22.6701,-10.3291 -48.1711,-16.1662 -76.5029,-17.4997z"/>
   <glyph unicode="D" horiz-adv-x="648" d="M307.006 667.002l0 -667.002 -217.507 0 -12.6686 0c-11.8264,0 -20.8336,2.16407 -27.3258,6.66768 -6.34015,4.32814 -9.51022,10.6683 -9.51022,18.6695 0,13.3237 6.50391,22.1671 19.6755,26.4953 10.6683,3.49761 16.9967,5.67338 18.8333,6.50391 1.82484,0.830536 3.66138,2.66707 5.66168,5.66168 3.83684,5.17038 5.83714,13.4991 5.83714,24.8342l0 488.998c0,11.3351 -2.0003,19.6638 -5.83714,24.998 -2.0003,2.84254 -3.83684,4.84284 -5.66168,5.67338 -1.83654,0.666768 -8.16498,2.99461 -18.8333,6.50391 -13.1716,4.32814 -19.6755,13.1599 -19.6755,26.4953 0,8.16498 3.17007,14.4934 9.51022,18.8333 6.49222,4.50361 15.4994,6.66768 27.3258,6.66768l12.6686 0 217.507 0zm97.9915 -527.332l0 385.661c0,23.8399 -3.33384,42.6732 -10.1653,56.6636 -4.32814,9.17099 -9.49852,15.8387 -15.6632,20.003 -6.16468,4.33984 -16.0024,7.83745 -29.3378,10.8321l0 54.172c17.1722,0 31.8411,-0.666768 44.0067,-2.0003 41.1642,-4.50361 81.334,-22.1671 119.995,-52.663 38.3333,-29.677 66.8289,-68.3379 85.3346,-115.842 19.1608,-48.1594 28.8348,-101.665 28.8348,-160.328 0,-66.5013 -12.1656,-125.504 -36.6722,-177.173 -24.3312,-51.4932 -59.3307,-92.1661 -104.835,-121.831 -22.1671,-14.3297 -42.6615,-24.1674 -61.834,-29.3261 -18.997,-5.17038 -43.995,-7.83745 -74.8301,-7.83745l0 52.663c13.6746,3.67307 23.1731,6.83145 28.5073,9.83775 5.49791,2.99461 9.98982,7.49822 13.9904,13.6629 4.84284,7.17068 8.17668,15.3357 10.0015,24.1674 1.83654,9.00722 2.66707,22.1671 2.66707,39.3393z"/>
   <glyph unicode="E" horiz-adv-x="586" d="M307.006 667.002l0 -667.002 -217.507 0 -12.6686 0c-11.8264,0 -20.8336,2.16407 -27.3258,6.66768 -6.34015,4.32814 -9.51022,10.6683 -9.51022,18.6695 0,13.3237 6.50391,22.1671 19.6755,26.4953 10.6683,3.49761 16.9967,5.67338 18.8333,6.50391 1.82484,0.830536 3.66138,2.66707 5.66168,5.66168 3.83684,5.17038 5.83714,13.4991 5.83714,24.8342l0 488.998c0,11.3351 -2.0003,19.6638 -5.83714,24.998 -2.0003,2.84254 -3.83684,4.84284 -5.66168,5.67338 -1.83654,0.666768 -8.16498,2.99461 -18.8333,6.50391 -13.1716,4.32814 -19.6755,13.1599 -19.6755,26.4953 0,8.16498 3.17007,14.4934 9.51022,18.8333 6.49222,4.50361 15.4994,6.66768 27.3258,6.66768l12.6686 0 217.507 0zm42.989 0l197.001 0 0 -173.5c0,-10.0015 -2.0003,-17.1722 -5.82545,-21.6641 -4.00061,-4.50361 -10.1653,-6.84315 -18.6695,-6.84315 -7.17068,0 -12.3294,1.509 -15.6632,4.33984 -3.17007,2.99461 -6.34015,8.99552 -9.17099,18.1665 -12.5048,37.8303 -30.6713,66.6651 -54.4995,86.5044 -24.0036,19.8276 -55.0025,31.8294 -93.1721,35.6662l0 57.3304zm-2.0003 -356.007l0 56.4998c18.8333,9.17099 32.8354,19.1725 41.8426,29.8408 9.15929,10.6683 15.827,24.998 19.9913,43.0007 2.66707,12.3294 6.00091,20.8336 10.3408,25.6647 4.16438,4.66738 10.1653,6.99522 18.0027,6.99522 10.3291,0 17.4997,-4.00061 21.5003,-12.1656 2.16407,-4.32814 3.32214,-13.8267 3.32214,-28.8348l0 -185.993c0,-15.4994 -1.66107,-26.1677 -5.15868,-32.1686 -3.33384,-5.83714 -9.67399,-8.83175 -18.6695,-8.83175 -7.49822,0 -13.3354,2.32784 -17.4997,6.83145 -4.32814,4.66738 -7.66198,12.3294 -10.3291,22.9976 -5.50961,22.6701 -13.3354,40.0061 -23.6761,52.0079 -10.1653,12.1656 -23.489,20.1668 -39.6668,24.1557zm3.00631 -310.995l0 52.8384c21.1611,3.33384 38.6608,7.82575 52.4992,13.6629 13.8384,6.00091 27.665,14.8327 41.6672,26.9983 14.0021,12.0018 25.1617,24.495 33.5022,37.5028 8.16498,12.8324 16.1662,29.8291 23.6644,51.0019 3.49761,10.4928 7.33445,17.6635 11.1713,21.3249 3.82514,3.83684 9.32305,5.67338 16.1662,5.67338 8.99552,0 15.324,-2.66707 18.997,-8.00122 3.49761,-5.49791 5.33414,-14.8327 5.33414,-28.168l0 -172.833 -203.002 0z"/>
   <glyph unicode="I" horiz-adv-x="396" d="M307.497 0l-217.998 0 -12.6686 0c-11.8264,0 -20.8336,2.16407 -27.3258,6.66768 -6.34015,4.32814 -9.51022,10.6683 -9.51022,18.6695 0,13.3237 6.50391,22.1671 19.6755,26.4953 10.6683,3.49761 16.9967,5.67338 18.8333,6.50391 1.82484,0.830536 3.66138,2.66707 5.66168,5.66168 3.83684,5.17038 5.83714,13.4991 5.83714,24.8342l0 488.998c0,11.3351 -2.0003,19.6638 -5.83714,24.998 -2.0003,2.84254 -3.83684,4.84284 -5.66168,5.67338 -1.83654,0.666768 -8.16498,2.99461 -18.8333,6.50391 -13.1716,4.32814 -19.6755,13.1599 -19.6755,26.4953 0,8.16498 3.17007,14.4934 9.51022,18.8333 6.49222,4.50361 15.4994,6.66768 27.3258,6.66768l12.6686 0 217.998 0 12.6686 0c11.8381,0 20.8336,-2.16407 27.3375,-6.66768 6.32845,-4.33984 9.49852,-10.6683 9.49852,-18.8333 0,-13.3354 -6.50391,-22.1671 -19.6638,-26.4953 -10.6683,-3.50931 -17.0084,-5.83714 -18.8333,-6.50391 -1.83654,-0.830536 -3.67307,-2.83084 -5.67338,-5.67338 -3.83684,-5.33414 -5.82545,-13.6629 -5.82545,-24.998l0 -488.998c0,-11.3351 1.98861,-19.6638 5.82545,-24.8342 2.0003,-2.99461 3.83684,-4.83114 5.67338,-5.66168 1.82484,-0.830536 8.16498,-3.00631 18.8333,-6.50391 13.1599,-4.32814 19.6638,-13.1716 19.6638,-26.4953 0,-8.00122 -3.17007,-14.3414 -9.49852,-18.6695 -6.50391,-4.50361 -15.4994,-6.66768 -27.3375,-6.66768l-12.6686 0z"/>
   <glyph unicode="N" horiz-adv-x="671" d="M316.165 667.002l259.841 -451.671 0 -215.331 -133.342 0 -331.828 571.666c-7.17068,12.5048 -13.0078,20.9973 -17.4997,26.004 -4.66738,4.83114 -10.5045,8.32875 -17.6635,10.6683l-18.5057 6.83145c-4.99491,1.66107 -8.83175,4.66738 -11.8381,8.83175 -2.83084,4.16438 -4.32814,8.99552 -4.32814,14.1659 0,5.49791 1.4973,10.6683 4.50361,15.3357 2.83084,4.83114 6.83145,8.16498 11.6626,10.0015 5.66168,2.32784 20.6698,3.49761 45.1648,3.49761l213.834 0zm-204.16 -172.003l51.9962 -86.0014 0 -261.502c0,-22.8339 3.83684,-41.4917 11.4988,-56.1606 7.49822,-14.6689 19.6638,-26.6707 36.1692,-36.1692l14.6689 -8.32875c8.49252,-4.84284 12.6569,-12.1656 12.6569,-22.0033 0,-7.49822 -2.99461,-13.6629 -9.15929,-18.5057 -5.33414,-4.16438 -16.0024,-6.32845 -32.1686,-6.32845l-113 0c-29.8291,0 -44.6735,8.50422 -44.6735,25.3372 0,5.82545 1.509,10.4928 4.66738,13.9904 3.17007,3.33384 9.83775,8.00122 20.3423,13.8384 31.3264,17.336 47.0013,48.6624 47.0013,94.3301l0 347.503zm464 -201.668l-52.0079 87.3349 0 135.331c0,27.5013 -4.00061,48.4986 -12.0018,63.0037 -7.82575,14.5051 -21.8279,26.9983 -41.9947,37.5028 -6.83145,3.33384 -11.4988,6.83145 -14.1659,10.4928 -2.5033,3.83684 -3.83684,8.66798 -3.83684,14.5051 0,8.83175 2.83084,15.3357 8.50422,19.3363 5.66168,4.16438 14.8327,6.16468 27.3258,6.16468l122.334 0c16.5054,0 27.3375,-2.66707 32.5079,-7.83745 5.49791,-5.17038 8.32875,-11.4988 8.32875,-18.6695 0,-6.83145 -1.4973,-11.9901 -4.66738,-15.324 -2.99461,-3.50931 -10.5045,-8.17668 -22.1671,-14.0021 -17.1605,-8.83175 -30.1683,-22.5063 -38.8363,-40.6729 -6.16468,-13.4991 -9.32305,-31.6656 -9.32305,-54.4995l0 -222.665z"/>
   <glyph unicode="O" horiz-adv-x="634" d="M297.004 627.335c-16.833,-6.00091 -28.671,-14.0021 -35.6662,-24.0036 -6.84315,-10.1653 -10.3408,-24.998 -10.3408,-44.6618l0 -436.675c0,-28.6593 4.00061,-48.8261 11.8381,-60.5004 6.32845,-9.82606 17.6635,-16.833 34.1689,-20.9973l0 -53.669c-72.3385,5.83714 -132.839,32.9992 -181.665,81.6732 -63.5067,63.1675 -95.3361,151.169 -95.3361,264.333 0,56.6636 8.32875,107.829 25.1617,153.661 16.833,45.6678 41.6672,84.5041 74.5026,116.509 24.998,24.3312 52.1717,43.0007 81.1702,55.6576 28.8348,12.6686 60.9917,19.8393 96.1667,21.5003l0 -52.8267zm39.9944 0l0 52.8267c35.1632,-1.66107 67.1681,-8.83175 96.3304,-21.5003 29.174,-12.6569 56.1723,-31.3264 81.1702,-55.6576 66.3376,-64.8403 99.5005,-154.842 99.5005,-270.17 0,-113.163 -31.6656,-201.165 -95.1607,-264.333 -48.6741,-49.0016 -109.338,-76.1636 -181.841,-81.6732l0 53.669c8.50422,2.0003 15.1719,4.50361 19.8393,7.49822 4.66738,3.17007 8.99552,7.67368 12.9961,13.4991 8.83175,13.3354 13.1716,33.5022 13.1716,60.5004l0 436.675c0,17.336 -3.00631,30.9989 -8.84345,41.1642 -3.82514,6.83145 -8.49252,12.3294 -13.9904,16.1662 -5.33414,4.00061 -13.0078,7.66198 -23.1731,11.3351z"/>
   <glyph unicode="V" horiz-adv-x="603" d="M405.336 170.833l-46.4983 -170.833 -128.335 0 -174.003 583.995c-2.66707,8.66798 -4.99491,14.6689 -7.33445,17.839 -2.32784,2.99461 -5.83714,5.66168 -10.8321,8.00122 -10.3291,4.16438 -17.1722,8.16498 -20.4943,11.6626 -3.17007,3.67307 -4.84284,9.00722 -4.84284,16.1662 0,9.83775 4.33984,17.4997 13.1716,22.9976 6.99522,4.17607 18.1665,6.34015 33.8297,6.34015l217.331 0c13.8384,0 23.1731,-0.339233 28.3435,-1.006 4.99491,-0.666768 9.15929,-2.0003 12.4931,-3.82514 3.33384,-2.33954 6.16468,-5.67338 8.34045,-9.83775 2.32784,-4.16438 3.49761,-8.32875 3.49761,-12.1656 0,-12.1656 -5.67338,-20.6698 -17.0084,-26.004 -8.49252,-4.16438 -14.3297,-8.49252 -17.3243,-12.8324 -3.17007,-4.50361 -4.66738,-10.6683 -4.66738,-18.8333 0,-5.33414 0.491303,-9.82606 1.4973,-13.6629l112.836 -398.002zm18.494 69.8352l-25.8285 91.6631 56.1606 206.008c3.50931,12.9961 5.50961,20.9973 5.83714,23.992 0.666768,7.17068 -0.994303,15.1719 -4.83114,24.0036 -5.17038,11.3351 -13.3354,18.8333 -24.3312,22.4946l-16.0024 5.83714c-12.5048,4.16438 -18.8333,12.5048 -18.8333,24.998 0,8.66798 3.49761,15.4994 10.6683,20.1668 6.99522,4.83114 16.833,7.17068 29.3261,7.17068l119.667 0c15.1719,0 24.998,-1.4973 29.5016,-4.33984 7.83745,-4.99491 11.8381,-11.9901 11.8381,-21.1611 0,-6.16468 -1.16977,-10.9958 -3.67307,-14.6689 -2.49161,-3.49761 -6.99522,-6.83145 -13.4991,-9.66229l-24.8342 -11.8381c-10.4928,-4.83114 -20.4943,-14.4934 -30.1683,-28.9986 -9.66229,-14.5051 -16.9967,-30.9989 -22.1671,-49.6684l-78.8307 -285.997z"/>
  </font>
  <style type="text/css">
   <![CDATA[
    @font-face { font-family:"Stencil";font-variant:normal;font-weight:normal;src:url("#FontID0") format(svg)}
    .fil0 {fill:#E0E0E0}
    .fil1 {fill:white}
    .fnt0 {font-weight:normal;font-size:4.08px;font-family:'Stencil'}
   ]]>
  </style>
 </defs>
 <g id="Camada_x0020_1">
  <metadata id="CorelCorpID_0Corel-Layer"/>
  <g id="_2265559330704">
   <rect class="fil0" width="20.01" height="12.09"/>
   <g transform="matrix(0.939693 -0.34202 0.34202 0.939693 2429.5 543.307)">
    <text x="-2098.1" y="-1330.96"  class="fil1 fnt0">VENCIDO</text>
   </g>
  </g>
 </g>
</svg>
