<?xml version="1.0" encoding="UTF-8"?>
<!DOCTYPE svg PUBLIC "-//W3C//DTD SVG 1.1//EN" "http://www.w3.org/Graphics/SVG/1.1/DTD/svg11.dtd">
<!-- Creator: CorelDRAW 2018 (64 Bit) -->
<svg xmlns="http://www.w3.org/2000/svg" xml:space="preserve" width="7.6058mm" height="7.0557mm" version="1.1" style="shape-rendering:geometricPrecision; text-rendering:geometricPrecision; image-rendering:optimizeQuality; fill-rule:evenodd; clip-rule:evenodd"
viewBox="0 0 14.17 13.15"
 xmlns:xlink="http://www.w3.org/1999/xlink">
 <defs>
  <style type="text/css">
   <![CDATA[
    .fil0 {fill:#690000;fill-rule:nonzero}
   ]]>
  </style>
 </defs>
 <g id="Camada_x0020_1">
  <metadata id="CorelCorpID_0Corel-Layer"/>
  <g id="_1530722193648">
   <path class="fil0" d="M13.49 3.71l-5.57 -3.47c-0.51,-0.32 -1.16,-0.32 -1.67,0l-5.57 3.47c-0.42,0.26 -0.68,0.72 -0.68,1.21l0 6.79c0,0.79 0.66,1.44 1.48,1.44l11.22 0c0.82,0 1.48,-0.64 1.48,-1.44l0 -6.79c0,-0.49 -0.26,-0.95 -0.68,-1.21zm-8.22 5.73l-3.45 2.68c-0.09,0.07 -0.19,0.1 -0.29,0.1 -0.14,0 -0.28,-0.06 -0.38,-0.18 -0.16,-0.21 -0.12,-0.51 0.08,-0.67l3.45 -2.68c0.21,-0.16 0.51,-0.13 0.67,0.08 0.16,0.21 0.13,0.51 -0.08,0.67zm1.36 -1.13l-4.37 -3.1c-0.48,-0.34 -0.24,-1.09 0.36,-1.09l8.93 0c0.6,0 0.85,0.75 0.36,1.09l-4.37 3.1c-0.27,0.19 -0.64,0.19 -0.91,0zm6.4 3.73c-0.09,0.12 -0.24,0.18 -0.38,0.18 -0.1,0 -0.21,-0.03 -0.29,-0.1l-3.45 -2.68c-0.21,-0.16 -0.25,-0.46 -0.08,-0.67 0.16,-0.21 0.46,-0.25 0.67,-0.08l3.45 2.68c0.21,0.16 0.25,0.46 0.08,0.67z"/>
   <path class="fil0" d="M8.81 5.04l-3.07 0c-0.32,0 -0.58,0.26 -0.58,0.58 0,0.32 0.26,0.58 0.58,0.58l3.07 0c0.32,0 0.58,-0.26 0.58,-0.58 0,-0.32 -0.26,-0.58 -0.58,-0.58z"/>
  </g>
 </g>
</svg>
